Daten
…
── Column specification ────────────────────────────────────────────────────────
Delimiter: ","
chr (4): 0.8, Very Good, H, VVS1
dbl (3): 62.9, 58, 4468

ℹ Use `spec()` to retrieve the full column specification for this data.
ℹ Specify the column types or set `show_col_types = FALSE` to quiet this message.

Printe den diamonds Datensatz. Inspiziere die Variablennamen. Etwas stimmt nicht, oder?

# Print diamonds
diamonds

# A tibble: 99 × 7
   `0.8` `Very Good` H     VVS1  `62.9`  `58` `4468`
   <chr> <chr>       <chr> <chr>  <dbl> <dbl>  <dbl>
 1 0.74  Ideal       H     IF      60.9    57   3760
 2 2.03  Premium     I     SI1     61.4    58  15683
 3 0.41  Ideal       G     VVS1    62.1    55   1151
 4 1.54  Premium     G     VS1     61.1    56  14438
 5 0.3   Ideal       E     VS2     61.8    55    795
 6 0.3   Ideal       H     VVS2    61.5    56    605
 7 1.2   Ideal       D     SI1     61.8    58   7508
 8 0.58  Ideal       E     VS2     62.3    54   1809
 9 0.31  Ideal       H     VS2     62.6    57    489
10 1.24  Very Good   F     VS1     59      60   9885
# … with 89 more rows
…
── Column specification ────────────────────────────────────────────────────────
Delimiter: ","
chr (4): karat, cut, farbe, klarheit
dbl (3): tiefe, tabelle, preis

ℹ Use `spec()` to retrieve the full column specification for this data.
ℹ Specify the column types or set `show_col_types = FALSE` to quiet this message.

Inspeziere den Datensatz. Sind die Spaltennamen nun korrekt?

# print diamonds
diamonds

# A tibble: 100 × 7
   karat cut       farbe klarheit tiefe tabelle preis
   <chr> <chr>     <chr> <chr>    <dbl>   <dbl> <dbl>
 1 0.8   Very Good H     VVS1      62.9      58  4468
 2 0.74  Ideal     H     IF        60.9      57  3760
 3 2.03  Premium   I     SI1       61.4      58 15683
 4 0.41  Ideal     G     VVS1      62.1      55  1151
 5 1.54  Premium   G     VS1       61.1      56 14438
 6 0.3   Ideal     E     VS2       61.8      55   795
 7 0.3   Ideal     H     VVS2      61.5      56   605
 8 1.2   Ideal     D     SI1       61.8      58  7508
 9 0.58  Ideal     E     VS2       62.3      54  1809
10 0.31  Ideal     H     VS2       62.6      57   489
# … with 90 more rows
…
── Column specification ────────────────────────────────────────────────────────
cols(
  karat = col_double(),
  cut = col_character(),
  farbe = col_character(),
  klarheit = col_character()
)

Printe diamonds, um sicher zu stellen, dass karat jetzt numeric ist, bzw. dbl (ein Fall von numeric).

# Zeige diamonds
diamonds

# A tibble: 100 × 7
   karat cut       farbe klarheit tiefe tabelle preis
   <dbl> <chr>     <chr> <chr>    <dbl>   <dbl> <dbl>
 1  0.8  Very Good H     VVS1      62.9      58  4468
 2  0.74 Ideal     H     IF        60.9      57  3760
 3  2.03 Premium   I     SI1       61.4      58 15683
 4  0.41 Ideal     G     VVS1      62.1      55  1151
 5  1.54 Premium   G     VS1       61.1      56 14438
 6  0.3  Ideal     E     VS2       61.8      55   795
 7  0.3  Ideal     H     VVS2      61.5      56   605
 8  1.2  Ideal     D     SI1       61.8      58  7508
 9  0.58 Ideal     E     VS2       62.3      54  1809
10  0.31 Ideal     H     VS2       62.6      57   489
# … with 90 more rows
…
Verwende die read_excel() Funktion, um den Datensatz titanic.xls als ein neues Objekt titanic einzulesen.

# Lese titanic.xls
titanic <- read_excel(path = "XX")

# Lese titanic.xls
titanic <- read_excel("1_Data/titanic.xls")

Printe titanic und evaluiere die Ausmasse des Datensatzes mit dim().

# Printe und evaluiere Ausmasse
titanic

# A tibble: 1,309 × 14
   pclass survived name     sex      age sibsp parch ticket  fare cabin embarked
    <dbl>    <dbl> <chr>    <chr>  <dbl> <dbl> <dbl> <chr>  <dbl> <chr> <chr>   
 1      1        1 Allen, … fema… 29         0     0 24160  211.  B5    S       
 2      1        1 Allison… male   0.917     1     2 113781 152.  C22 … S       
 3      1        0 Allison… fema…  2         1     2 113781 152.  C22 … S       
 4      1        0 Allison… male  30         1     2 113781 152.  C22 … S       
 5      1        0 Allison… fema… 25         1     2 113781 152.  C22 … S       
 6      1        1 Anderso… male  48         0     0 19952   26.6 E12   S       
 7      1        1 Andrews… fema… 63         1     0 13502   78.0 D7    S       
 8      1        0 Andrews… male  39         0     0 112050   0   A36   S       
 9      1        1 Appleto… fema… 53         2     0 11769   51.5 C101  S       
10      1        0 Artagav… male  71         0     0 PC 17…  49.5 <NA>  C       
# … with 1,299 more rows, and 3 more variables: boat <chr>, body <dbl>,
#   home.dest <chr>
…
In diesem Abschnitt liest du den sleep Datensatz, welcher Informationen über das Schlafverhalten der Mitarbeiter der Universität Melbourne enthält, aus einem SPSS-Format ein und speicherst die ihn im .csv-Format.

Verwende die read_spss() Funktion, um den Datensatz sleep.sav als ein neues Objekt sleep einzulesen.

XX <- read_spss(file = "XX")

# Lese sleep Daten
sleep <- read_spss(file = "1_Data/sleep.sav")

Printe sleep und evaluiere die Ausmasse des Datensatzes mit dim(). Du wirst sehen, R war so clever die Labels der Variablen mit zu übernehmen.

# Printe und evaluiere Ausmass
sleep

# A tibble: 271 × 55
      id      sex   age   marital       edlevel weight height healthrate fitrate
   <dbl> <dbl+lb> <dbl> <dbl+lbl>     <dbl+lbl>  <dbl>  <dbl>  <dbl+lbl> <dbl+l>
 1    83 0 [fema…    42 2 [marri… 2 [secondary…     52    162 10 [very …       7
 2   294 0 [fema…    54 2 [marri… 5 [postgradu…     65    174  8               7
 3   425 1 [male]    NA 2 [marri… 2 [secondary…     89    170  6               5
 4    64 0 [fema…    41 2 [marri… 5 [postgradu…     66    178  9               7
 5   536 0 [fema…    39 2 [marri… 5 [postgradu…     62    160  9               5
 6    57 0 [fema…    66 2 [marri… 4 [undergrad…     62    165  8               8
 7   251 0 [fema…    36 1 [singl… 3 [trade tra…     62    165  9               7
 8   255 0 [fema…    35 2 [marri… 5 [postgradu…     75    174  6               6
 9   265 1 [male]    NA 2 [marri… 5 [postgradu…     90    180  6               6
10   290 1 [male]    41 2 [marri… 5 [postgradu…     75    187  9               9
# … with 261 more rows, and 46 more variables: weightrate <dbl+lbl>,
#   smoke <dbl+lbl>, smokenum <dbl>, alchohol <dbl>, caffeine <dbl>,
#   hourwnit <dbl>, hourwend <dbl>, hourneed <dbl>, trubslep <dbl+lbl>,
#   trubstay <dbl+lbl>, wakenite <dbl+lbl>, niteshft <dbl+lbl>,
#   liteslp <dbl+lbl>, refreshd <dbl+lbl>, satsleep <dbl+lbl>,
#   qualslp <dbl+lbl>, stressmo <dbl+lbl>, medhelp <dbl+lbl>,
#   problem <dbl+lbl>, impact1 <dbl+lbl>, impact2 <dbl+lbl>, impact3 <dbl+lbl>,
#   impact4 <dbl+lbl>, impact5 <dbl+lbl>, impact6 <dbl+lbl>, impact7 <dbl+lbl>,
#   stopb <dbl+lbl>, restlss <dbl+lbl>, drvsleep <dbl+lbl>, drvresul <dbl+lbl>,
…
