Daten
…
---

.pull-left45[

# Inhalt ansehen

```r
# printe basel
basel
```

```
## # A tibble: 10,000 x 20
##      id geschlecht alter groesse gewicht
##   <dbl> <chr>      <dbl>   <dbl>   <dbl>
## 1     1 W             44    174     NA  
## 2     2 M             65    180     85.6
## 3     3 M             31    168     53.9
## 4     4 M             31    166.   105  
## 5     5 M             24    180.   102. 
## # … with 9,995 more rows, and 15 more
## #   variables
```
…
.pull-left45[

# Verändern mit <high>`$`</high>

```r
# Teile die Variable einkommen durch 1000
basel$einkommen <- basel$einkommen / 1000

# zeige data frame
basel
```

```
## # A tibble: 10,000 x 20
##      id geschlecht alter groesse gewicht
##   <dbl> <chr>      <dbl>   <dbl>   <dbl>
## 1     1 W             44    174     NA  
## 2     2 M             65    180     85.6
## 3     3 M             31    168     53.9
## 4     4 M             31    166.   105  
## 5     5 M             24    180.   102. 
## # … with 9,995 more rows, and 15 more
## #   variables
```
…
.pull-right45[

```r
# Lese Basel Datensatz ein
basel <- read_csv("1_Data/basel.csv")

# Benutze expliziten Delimiter
basel <- read_delim("1_Data/basel.csv",
                   delim = ",")
basel
```

```
## # A tibble: 10,000 x 20
##      id geschlecht alter groesse
##   <dbl> <chr>      <dbl>   <dbl>
## 1     1 f             87    165 
## 2     2 m             54    175.
## 3     3 f             34    147.
## 4     4 m             31    166.
## 5     5 m             24    180.
## # … with 9,995 more rows, and 16
## #   more variables
```
…
.pull-right45[

```r
# Lese Basel Datensatz ein
basel <- read_csv("1_Data/basel.csv")

# Benutze expliziten Delimiter
basel <- read_delim("1_Data/basel.csv",
                   delim = ",")
basel
```

```
## # A tibble: 10,000 x 20
##      id geschlecht alter groesse
##   <dbl> <chr>      <dbl>   <dbl>
## 1     1 f             87    165 
## 2     2 m             54    175.
## 3     3 f             34    147.
## 4     4 m             31    166.
## 5     5 m             24    180.
## # … with 9,995 more rows, and 16
## #   more variables
```
…
]

.pull-right45[

```r
# Extrahiere Tabelle Customers
basel <- tbl(con, "basel")
basel
```

```
## # Source:   table<basel> [?? x 20]
## # Database: mysql 5.7.26-log-cll-lve
## #   [studiech_rbootca@studie.ch:/studiech_rbootcamp]
##      id geschlecht alter_jahre groesse
##   <dbl> <chr>            <dbl>   <dbl>
## 1     1 f                   87    165 
## 2     2 m                   54    175.
## 3     3 f                   34    147.
## 4     4 m                   31    166.
## 5     5 m                   24    180.
## # … with more rows, and 16 more
## #   variables
```

]

---

# Relationale Datenbanken <font style="font-size: 16px">siehe <a href="https://db.rstudio.com/">db.rstudio.com</a></font>

.pull-left45[

<ul>
  <li class="m1"><span>R kann direkt <high>auf Datenbanken arbeiten</high>: <mono>MySQL</mono>, <mono>MariaDB</mono>, <mono>BigQuery</mono>, <mono>Redshift</mono>, etc.<br><font style="font-size:16px">Siehe <a href="https://db.rstudio.com/databases">hier</a>.</font></span></li>
  <li class="m2"><span><mono>dplyr</mono> wird z.B. <high>automatisch übersetzt.</high></span></li>
</ul>

]

.pull-right45[

```r
# Extrahiere Tabelle Customers
basel <- tbl(con, "basel")

# Extrahiere CompanyNamer Variable
basel %>% pull(konfession)
```

```
##  [1] "katholisch"     "konfessionslos"
##  [3] "konfessionslos" "katholisch"    
##  [5] "katholisch"     NA              
##  [7] "konfessionslos" "katholisch"    
##  [9] "konfessionslos" "andere"        
##  [ reached getOption("max.print") -- omitted 9990 entries ]
```
]

---

# Semi-strukturierte Daten <font style="font-size: 16px">mit <a href="https://github.com/r-lib/xml2"><mono>xml2</mono></a> und <a href="https://github.com/hadley/rvest"><mono>rvest</mono></a></font> 

```r
# Tabelle laden von Wikipedia (mit xml2 und rvest)
read_html("https://en.wikipedia.org/wiki/R_(programming_language)") %>%
  html_node(xpath = '//*[@id="mw-content-text"]/div/table[2]') %>%
  html_table() %>% as_tibble()
```

```
## # A tibble: 21 x 3
##    Release Date        Description                                                        
##    <chr>   <chr>       <chr>                                                              
##  1 0.16    ""          "This is the last alpha version developed primarily by Ihaka and G…
##  2 0.49    "1997-04-2… "This is the oldest source release which is currently available on…
##  3 0.60    "1997-12-0… "R becomes an official part of the GNU Project. The code is hosted…
##  4 0.65.1  "1999-10-0… "First versions of update.packages and install.packages functions …
##  5 1.0     "2000-02-2… "Considered by its developers stable enough for production use.[55…
##  6 1.4     "2001-12-1… "S4 methods are introduced and the first version for Mac OS X is m…
##  7 1.8     "2003-10-0… "Introduced a flexible condition handling mechanism for signalling…
##  8 2.0     "2004-10-0… "Introduced lazy loading, which enables fast loading of data with …
##  9 2.1     "2005-04-1… "Support for UTF-8 encoding, and the beginnings of internationaliz…
## 10 2.6.2   "2008-02-0… "Last version to support Windows 95, 98, Me and NT 4.0[56]"        
## # … with 11 more rows
```
…
