Wrangling II
…
bevoelkerung <- read_csv(file = "1_Data/bevoelkerung.csv")

Mache dich mit dem Datensatz vertraut in dem du die ersten paar Zeilen (print()) und die Variablennamen (names()) anschaust.

names(bevoelkerung)

 [1] "Stadtname"          "st_wbev_2011"       "st_wbev_2001"      
 [4] "proz_ver-2001–2011" "bevdichte"          "st_wbev_1930"      
 [7] "st_wbev_1970"       "st_wbev_1980"       "st_wbev_1990"      
[10] "st_wbev_2000"      

bevoelkerung

# A tibble: 161 × 10
   Stadtname  st_wbev_2011 st_wbev_2001 `proz_ver-2001–2… bevdichte st_wbev_1930
   <chr>             <dbl>        <dbl>             <dbl>     <dbl>        <dbl>
 1 Basel            164516       164665              -0.1        69       148063
 2 Bern             125681       122211               2.8        24       111783
 3 Genève           188234       175697               7.1       119       124121
 4 Lausanne         129383       115272              12.2        31        75915
 5 Winterthur       103075        89484              15.2        15        53925
 6 Zürich           376990       340197              10.8        43       290937
 7 Biel-Bien…        51635        48142               7.3        24        37726
 8 Lugano            55151        50877               8.4        17        17672
 9 Luzern            78093        73233               6.6        27        47066
10 St. Gallen        73505        69857               5.2        19        63947
# … with 151 more rows, and 4 more variables: st_wbev_1970 <dbl>,
#   st_wbev_1980 <dbl>, st_wbev_1990 <dbl>, st_wbev_2000 <dbl>
…
D - Wiederholung Wrangling I

Im Rest des Practicals arbeitst du mit dem kc_house.csv Datensatz. Er enthält Verkaufspreise von Häusern in King County, Washington. Aufgelistet sind Häuser, welche zwischen Mai 2014 und Mai 2015 verkauft wurden. Nebst den Verkaufspreisen enthält der Datensatz Spezifikationen der Häuser, z.B. die Anzahl Zimmer eines Hauses.

Lese den Datensatz mit der read_csv() Funktion in R ein und speichere ihn unter dem Namen kc_house.

kc_house <- read_csv(file = "1_Data/kc_house.csv")

Printe den Datensatz und verwende summary() und names() um einen Eindruck über dessen Struktur zu erhalten.

kc_house

# A tibble: 21,613 × 11
     preis schlafzimmer badezimmer qf_wohnraum qf_parzelle stoecke  ufer
     <dbl>        <dbl>      <dbl>       <dbl>       <dbl>   <dbl> <dbl>
 1  221900            3       1           1180        5650       1     0
 2  538000            3       2.25        2570        7242       2     0
 3  180000            2       1            770       10000       1     0
 4  604000            4       3           1960        5000       1     0
 5  510000            3       2           1680        8080       1     0
 6 1225000            4       4.5         5420      101930       1     0
 7  257500            3       2.25        1715        6819       2     0
 8  291850            3       1.5         1060        9711       1     0
 9  229500            3       1           1780        7470       1     0
10  323000            3       2.5         1890        6560       2     0
# … with 21,603 more rows, and 4 more variables: qf_dachstock <dbl>,
#   qf_keller <dbl>, baujahr <dbl>, postleitzahl <dbl>
…
# A tibble: 1 × 1
  preis_max
      <dbl>
1   7700000

Sortiere mittels der arrange() und der desc() Funktion den Datensatz nach preis in absteigender Reihenfolge und printe das Resultat. Richtig sortiert?

kc_house <- kc_house %>%
  arrange(desc(preis))

kc_house

# A tibble: 21,613 × 16
     preis schlafzimmer badezimmer qf_wohnraum qf_parzelle stoecke  ufer
     <dbl>        <dbl>      <dbl>       <dbl>       <dbl>   <dbl> <dbl>
 1 7700000            6       8          12050       27600     2.5     0
 2 7062500            5       4.5        10040       37325     2       1
 3 6885000            6       7.75        9890       31374     2       0
 4 5570000            5       5.75        9200       35069     2       0
 5 5350000            5       5           8000       23985     2       0
 6 5300000            6       6           7390       24829     2       1
 7 5110800            5       5.25        8010       45517     2       1
 8 4668000            5       6.75        9640       13068     1       1
 9 4500000            5       5.5         6640       40014     2       1
10 4489000            4       3           6430       27517     2       0
# … with 21,603 more rows, and 9 more variables: qf_dachstock <dbl>,
#   qf_keller <dbl>, baujahr <dbl>, postleitzahl <dbl>, qm_wohnraum <dbl>,
#   qm_dachstock <dbl>, qm_keller <dbl>, qm_total <dbl>, villa <chr>
…
# A tibble: 2 × 5
  villa     N preis_min preis_mean preis_max
  <chr> <int>     <dbl>      <dbl>     <dbl>
1 ja      751    404000   1541915.   7700000
2 nein  20862     75000    504024.   3100000

Haben Häuser, welche später gebaut wurden, eine grössere Wohnfläche? Gruppiere zur Beantwortung dieser Frage die Daten nach baujahr und berechne dann die mittlere Wohnfläche (qm_wohnraum).

kc_house %>%
  group_by(baujahr) %>%
  summarise(N = n(),
            wohnraum = mean(qm_wohnraum))

# A tibble: 116 × 3
   baujahr     N wohnraum
     <dbl> <int>    <dbl>
 1    1900    87     161.
 2    1901    29     164.
 3    1902    27     179.
 4    1903    46     140.
 5    1904    45     149.
 6    1905    74     183.
 7    1906    92     168.
 8    1907    65     177.
 9    1908    86     158.
10    1909    94     177.
# … with 106 more rows
…
