Wrangling II
…
]

.pull-right5[

```r
basel
```

```
## # A tibble: 10,000 x 20
##      id geschlecht alter groesse gewicht
##   <dbl> <chr>      <dbl>   <dbl>   <dbl>
## 1     1 f             87    165     NA  
## 2     2 m             54    175.    85.6
## 3     3 f             34    147.    53.9
## 4     4 m             31    166.   105  
## 5     5 m             24    180.   102. 
## # … with 9,995 more rows, and 15 more
## #   variables: einkommen <dbl>,
## #   bildung <chr>, konfession <chr>,
## #   kinder <dbl>, glueck <dbl>,
## #   fitness <dbl>, essen <dbl>,
## #   alkohol <dbl>, tattoos <dbl>,
## #   rhein <dbl>, …
```
…
]

.pull-right5[

```r
basel %>%
  select(alter, groesse, konfession, einkommen)
```

```
## # A tibble: 10,000 x 4
##   alter groesse konfession     einkommen
##   <dbl>   <dbl> <chr>              <dbl>
## 1    87    165  katholisch            NA
## 2    54    175. konfessionslos      7500
## 3    34    147. konfessionslos      5500
## 4    31    166. katholisch            NA
## 5    24    180. katholisch          3800
## # … with 9,995 more rows
```
…
