Wiederholung
…
.pull-right45[

```r
# Lese Basel Datensatz ein
basel <- read_csv("1_Data/basel.csv")

# Benutze expliziten Delimiter
basel <- read_delim("1_Data/basel.csv",
                   delim = ",")
basel
```

```
## # A tibble: 10,000 x 20
##      id geschlecht alter groesse
##   <dbl> <chr>      <dbl>   <dbl>
## 1     1 f             87    165 
## 2     2 m             54    175.
## 3     3 f             34    147.
## 4     4 m             31    166.
## 5     5 m             24    180.
## # … with 9,995 more rows, and 16
## #   more variables
```
…
]

.pull-right5[

```r
basel
```

```
## # A tibble: 10,000 x 20
##      id geschlecht alter groesse gewicht
##   <dbl> <chr>      <dbl>   <dbl>   <dbl>
## 1     1 f             87    165     NA  
## 2     2 m             54    175.    85.6
## 3     3 f             34    147.    53.9
## 4     4 m             31    166.   105  
## 5     5 m             24    180.   102. 
## # … with 9,995 more rows, and 15 more
## #   variables: einkommen <dbl>,
## #   bildung <chr>, konfession <chr>,
## #   kinder <dbl>, glueck <dbl>,
## #   fitness <dbl>, essen <dbl>,
## #   alkohol <dbl>, tattoos <dbl>,
## #   rhein <dbl>, …
```
…
